-------------------------------------------------------------------------------
Test set: it.codeland.jean.learn.core.filters.LoggingFilterTest
-------------------------------------------------------------------------------
Tests run: 1, Failures: 0, Errors: 0, Skipped: 0, Time elapsed: 1.313 s - in it.codeland.jean.learn.core.filters.LoggingFilterTest
